…
Opening datasets
========================================================


```r
library(readr)
nc <- read_csv("C:/Users/milan/r_projects/meetup-presentations_sarasota/2018_01_29_intro_R/nc.csv")
print(nc)
```

```
# A tibble: 1,000 x 13
    fage  mage mature      weeks premie    visits marital gained weight
   <int> <int> <chr>       <int> <chr>      <int> <chr>    <int>  <dbl>
 1    NA    13 younger mom    39 full term     10 married     38   7.63
 2    NA    14 younger mom    42 full term     15 married     20   7.88
 3    19    15 younger mom    37 full term     11 married     38   6.63
 4    21    15 younger mom    41 full term      6 married     34   8.00
 5    NA    15 younger mom    39 full term      9 married     27   6.38
 6    NA    15 younger mom    38 full term     19 married     22   5.38
 7    18    15 younger mom    37 full term     12 married     76   8.44
 8    17    15 younger mom    35 premie         5 married     15   4.69
 9    NA    16 younger mom    38 full term      9 married     NA   8.81
10    20    16 younger mom    37 full term     13 married     52   6.94
# ... with 990 more rows, and 4 more variables: lowbirthweight <chr>,
#   gender <chr>, habit <chr>, whitemom <chr>
```
…
